BEGIN SYMTABLE
 BEGIN PROCEDURE q
  BEGIN SYMTABLE
   VAR
    NAME : a
    TYPE : integer
   VAR
    NAME : b
    TYPE : integer
  END SYMTABLE
  BEGIN STMT BLOCK
   BEGIN STMT ASSIGN
     c
    :=
     a
   END STMT ASSIGN
   BEGIN STMT ASSIGN
     d
    :=
     b
   END STMT ASSIGN
  END STMT BLOCK
 END PROCEDURE q
 TYPE : boolean
 VAR
  NAME : c
  TYPE : integer
 VAR
  NAME : d
  TYPE : integer
 TYPE : char
 TYPE : integer
 TYPE : float
END SYMTABLE
BEGIN STMT BLOCK
END STMT BLOCK
